{"assets":[{"address":"0xcA5228D1fe52D22db85E02CA305cddD9E573D752","name":"FastCashMoneyPlus","decimals":18,"symbol":"FASTCASH","logoURI":"","chain":"ETH","network":"mainnet","amount":"5000000000000000000"},{"address":"0x9D9c250311b65803c895CC77f878b8092019dedC","name":"Player Tokens","decimals":0,"symbol":"PTI","logoURI":"","chain":"ETH","network":"mainnet","amount":"346193"},{"address":"0x9E32b13ce7f2E80A01932B42553652E053D6ed8e","name":"Metis Token","decimals":18,"symbol":"Metis","logoURI":"","chain":"ETH","network":"mainnet","amount":"6467641402"},{"address":"0x59Bd6774C22486D9F4FAb2D448dCe4F892a9Ae25","name":"Tetranode's Locker: gOHM","decimals":8,"symbol":"fgOHM-6","logoURI":"","chain":"ETH","network":"mainnet","amount":"1"},{"address":"0xF12ce5503e4bedb7178951321925E4306C4c3b12","name":"SupDao.com","decimals":18,"symbol":"SupDao.com","logoURI":"","chain":"ETH","network":"mainnet","amount":"800000000000000000000000"},{"address":"0x5645E72bcBCb9f218268e5DB15F62F016f885984","name":"Mandelbrot VIP Pass","decimals":0,"symbol":"VIP","logoURI":"","chain":"ETH","network":"mainnet","amount":"1"},{"address":"0xcfbD04B3ceF2CF1527F143A49e5dc1e19941d254","name":"LootLoose","decimals":18,"symbol":"LOOTL","logoURI":"","chain":"ETH","network":"mainnet","amount":"1164405665921330103767731469"},{"address":"0x2772b0dd22381932b104d683e73C5ecb5A3A2408","name":"LootMart","decimals":18,"symbol":"mLOOT","logoURI":"","chain":"ETH","network":"mainnet","amount":"2333035176743585603004433727"},{"address":"0x63454D31e6BBB7eF305B485115C941bb78CA3a48","name":"Loot Crate","decimals":18,"symbol":"Lootc","logoURI":"","chain":"ETH","network":"mainnet","amount":"920977736348001796661924233"},{"address":"0x82dfDB2ec1aa6003Ed4aCBa663403D7c2127Ff67","name":"akSwap.io","decimals":18,"symbol":"akSwap.io","logoURI":"","chain":"ETH","network":"mainnet","amount":"250000000000000000000000"}],"owner":"0x5338035c008EA8c4b850052bc8Dad6A33dc2206c","totalPages":71,"totalItems":701,"pageNumber":1}