{"owner":"0x5338035c008EA8c4b850052bc8Dad6A33dc2206c","assets":[{"name":"MoonCatAcclimator #20158","collectionTokenId":"20158","collectionName":"MoonCatAcclimator","imageUrl":"https://api.mooncat.community/image/0x003ab88557","collectionAddress":"0xc3f733ca98E0daD0386979Eb96fb1722A1A05E69","traits":[{"value":"Rescue","trait_type":"Classification"},{"value":"Orange Spotted","trait_type":"Coat"},{"value":"Orange","trait_type":"Coat Hue"},{"value":"Spotted","trait_type":"Coat Pattern"},{"value":"Normal","trait_type":"Coat Saturation"},{"value":"Shy","trait_type":"Expression"},{"value":"No","trait_type":"Has Clones?"},{"value":"No","trait_type":"Has Mirrors?"},{"value":"Yes","trait_type":"Has Twins?"},{"value":28,"max_value":359,"trait_type":"Hue"},{"value":"0x003ab88557","trait_type":"MoonCat Id"},{"value":"No","trait_type":"Only Child?"},{"value":"Pouncing","trait_type":"Pose"},{"value":20158,"max_value":25439,"trait_type":"Rescue Index"},{"value":"2021","trait_type":"Rescue Year"},{"value":0,"trait_type":"Total Accessories"},{"value":"No","trait_type":"isNamed"},{"value":"Minted","trait_type":"lootprint"}],"chain":"ETH","network":"mainnet","description":"An Adorable Orange Shy Spotted [MoonCat](https://purrse.mooncat.community/20158).","provenance":[{"blockNumber":"12304338","date":"2021-04-24T17:42:14.000Z","from":"0x0000000000000000000000000000000000000000","to":"0xdbeDB1B7d359b0776E139D385c78a5ac9B27C0f9","txHash":"0xdb2c2450a6fd707234aafc3508cb277b324a6f44ef8072b6d5821bb23a7773ef"},{"blockNumber":"12949191","date":"2021-08-03T00:32:01.000Z","from":"0xdbeDB1B7d359b0776E139D385c78a5ac9B27C0f9","to":"0x1Fd2f34B8113d7619fCa5E501DC4378d615F5944","txHash":"0x113078577dec106cb99767b44a3dea11c0d49ecc2fe16758185bda66598a5403"},{"blockNumber":"13070124","date":"2021-08-21T17:58:18.000Z","from":"0x1Fd2f34B8113d7619fCa5E501DC4378d615F5944","to":"0x190378d08D82b3Dda38f14a2DE5eaA405397c660","txHash":"0x05823a138a34e4875bbe09a3d78d6cfa669719dab55bf5a4cd22a9f4f0bffde9"},{"blockNumber":"13194452","date":"2021-09-09T23:06:38.000Z","from":"0x190378d08D82b3Dda38f14a2DE5eaA405397c660","to":"0xFdB26046b3138F5a812FffE027527c0bF9C4d686","txHash":"0xd706131474233b711c540a907987125946e6ce646239effd1e589afb442c6f66"},{"blockNumber":"13305926","date":"2021-09-27T05:16:12.000Z","from":"0xFdB26046b3138F5a812FffE027527c0bF9C4d686","to":"0x190378d08D82b3Dda38f14a2DE5eaA405397c660","txHash":"0xdba12ffc021449a954e7ae9f1db1fd560adf94502d76d60cee9a5596b8a92963"},{"blockNumber":"13346452","date":"2021-10-03T13:19:59.000Z","from":"0x190378d08D82b3Dda38f14a2DE5eaA405397c660","to":"0x88004A0F6E7dFc2EF21C49b614Eb0a3569e29525","txHash":"0x8f56e84a5c81632c55ca7de278fc51d60b0fd0f6e92d513bb388640a79c30cf5"},{"blockNumber":"14606033","date":"2022-04-18T00:36:19.000Z","from":"0x88004A0F6E7dFc2EF21C49b614Eb0a3569e29525","to":"0x5821679C13dBa57452785F1D392ee91b8e6ceAb3","txHash":"0xc5d8cfdcf8b5c7987df5057335419d384ecaa4c7bd07bca280915da84bd44855"},{"blockNumber":"14606900","date":"2022-04-18T03:57:55.000Z","from":"0x5821679C13dBa57452785F1D392ee91b8e6ceAb3","to":"0x5338035c008EA8c4b850052bc8Dad6A33dc2206c","txHash":"0x6f886504d281b894cb0378784ae9b5ab1c81857b94bc62de86de382646295a5d"}],"currentOwner":"0x5338035c008EA8c4b850052bc8Dad6A33dc2206c"},{"name":"MoonCatAcclimator #11408","collectionTokenId":"11408","collectionName":"MoonCatAcclimator","imageUrl":null,"collectionAddress":"0xc3f733ca98E0daD0386979Eb96fb1722A1A05E69","traits":[],"chain":"ETH","network":"mainnet","description":"MoonCatAcclimator","provenance":[{"blockNumber":"13168205","date":"2021-09-05T21:42:47.000Z","from":"0x0000000000000000000000000000000000000000","to":"0x98c7984F84D421c1CB16Af8525F05989eECF66b0","txHash":"0xe6032beeadeea4e0ff7f27d4e2999bd31c290e6210ebf0f0aec207da7c0bee3f"},{"blockNumber":"13168329","date":"2021-09-05T22:09:41.000Z","from":"0x98c7984F84D421c1CB16Af8525F05989eECF66b0","to":"0xA40D281dE9c15D501EF21AC32f777a5A551fddD6","txHash":"0xb83a598e14503fee3c88fde667728293f6e227c9104b38f911df93a0f7a97a96"},{"blockNumber":"13186979","date":"2021-09-08T19:15:56.000Z","from":"0xA40D281dE9c15D501EF21AC32f777a5A551fddD6","to":"0x8718e982b2F4BbD11E24aac227068e8B5e6930dC","txHash":"0xdebf838061598c8d38eb57564184a76a52802fd96ddfafc7be10fc3ffb0f17de"},{"blockNumber":"13218341","date":"2021-09-13T16:06:43.000Z","from":"0x8718e982b2F4BbD11E24aac227068e8B5e6930dC","to":"0xb1c91BF26aD7d580d0Ceb93f3f7659c347871555","txHash":"0xb0a5de7c679f7efef4512d3e4c60dc481180b8c9d3d154fe80bbfdda6bd100a2"},{"blockNumber":"13218985","date":"2021-09-13T18:30:23.000Z","from":"0xb1c91BF26aD7d580d0Ceb93f3f7659c347871555","to":"0x94c25eA64eB6c041f4F363cAE311777FfA1ADE2e","txHash":"0xd34053ef989a06dc76bb5c224413b49da1d7432f7dcdb03b9a943773470ac57d"},{"blockNumber":"14422640","date":"2022-03-20T10:11:45.000Z","from":"0x94c25eA64eB6c041f4F363cAE311777FfA1ADE2e","to":"0x7F47D6407714164346a44A73Ea1D2D4c2a77B8D3","txHash":"0x94987fe3d650a8b9a233186b5fd8d7ca75d8ea0b5e67a2c13ca40188884bbc50"},{"blockNumber":"14422784","date":"2022-03-20T10:45:12.000Z","from":"0x7F47D6407714164346a44A73Ea1D2D4c2a77B8D3","to":"0x97cd3e7fe7e6580eDf31b384b2E4a867cF2B33E0","txHash":"0x74485029f5bb603f4d3f9b6522b564ddcd9a81858c8bfffdb3a8c5a0b4bc317d"},{"blockNumber":"14436489","date":"2022-03-22T13:55:45.000Z","from":"0x97cd3e7fe7e6580eDf31b384b2E4a867cF2B33E0","to":"0x7F47D6407714164346a44A73Ea1D2D4c2a77B8D3","txHash":"0x4127b2c98625ec0b1dfe519abac3403123748ebc7c3a710bc77684b15b60d51a"},{"blockNumber":"14500537","date":"2022-04-01T13:09:39.000Z","from":"0x7F47D6407714164346a44A73Ea1D2D4c2a77B8D3","to":"0x97cd3e7fe7e6580eDf31b384b2E4a867cF2B33E0","txHash":"0x6de775881e92ed238d02213159c71f90aef390a76c5c28dafac56384b308a4c5"},{"blockNumber":"14606938","date":"2022-04-18T04:04:50.000Z","from":"0x97cd3e7fe7e6580eDf31b384b2E4a867cF2B33E0","to":"0x5338035c008EA8c4b850052bc8Dad6A33dc2206c","txHash":"0xc50351fa61a025c3e71b7289b0f74c3e3d273736954d1429e43cbe956a2c7f41"}],"currentOwner":"0x5338035c008EA8c4b850052bc8Dad6A33dc2206c"},{"name":"TransparentUpgradeableProxy #9598","collectionTokenId":"9598","collectionName":"TransparentUpgradeableProxy","imageUrl":"https://api.supducks.com/kingfrogs/image/9598","collectionAddress":"0xd668A2E001f3385B8BBC5a8682AC3C0D83C19122","traits":[{"value":"Liquorice","trait_type":"Background"},{"value":"GenZ","trait_type":"Eyes"},{"value":"Jester","trait_type":"Hat"},{"value":"Sad","trait_type":"Mouth"},{"value":"Apple Tart","trait_type":"Skin"}],"chain":"ETH","network":"mainnet","description":"TransparentUpgradeableProxy","provenance":[{"blockNumber":"13330062","date":"2021-09-30T23:53:38.000Z","from":"0x0000000000000000000000000000000000000000","to":"0x5338035c008EA8c4b850052bc8Dad6A33dc2206c","txHash":"0x35545e6840afd0fb06a1cb3013769aaee314d2f7ae22871754cafa8cd1c9d832"}],"currentOwner":"0x5338035c008EA8c4b850052bc8Dad6A33dc2206c"},{"name":"TransparentUpgradeableProxy #9599","collectionTokenId":"9599","collectionName":"TransparentUpgradeableProxy","imageUrl":"https://api.supducks.com/kingfrogs/image/9599","collectionAddress":"0xd668A2E001f3385B8BBC5a8682AC3C0D83C19122","traits":[{"value":"Iced","trait_type":"Background"},{"value":"Bored","trait_type":"Eyes"},{"value":"Ninja","trait_type":"Hat"},{"value":"Basic","trait_type":"Mouth"},{"value":"Grape","trait_type":"Skin"}],"chain":"ETH","network":"mainnet","description":"TransparentUpgradeableProxy","provenance":[{"blockNumber":"13330062","date":"2021-09-30T23:53:38.000Z","from":"0x0000000000000000000000000000000000000000","to":"0x5338035c008EA8c4b850052bc8Dad6A33dc2206c","txHash":"0x35545e6840afd0fb06a1cb3013769aaee314d2f7ae22871754cafa8cd1c9d832"}],"currentOwner":"0x5338035c008EA8c4b850052bc8Dad6A33dc2206c"},{"name":"TransparentUpgradeableProxy #9600","collectionTokenId":"9600","collectionName":"TransparentUpgradeableProxy","imageUrl":"https://api.supducks.com/kingfrogs/image/9600","collectionAddress":"0xd668A2E001f3385B8BBC5a8682AC3C0D83C19122","traits":[{"value":"Aqua","trait_type":"Background"},{"value":"GenZ","trait_type":"Eyes"},{"value":"Banana","trait_type":"Hat"},{"value":"Basic","trait_type":"Mouth"},{"value":"Apple Tart","trait_type":"Skin"}],"chain":"ETH","network":"mainnet","description":"TransparentUpgradeableProxy","provenance":[{"blockNumber":"13330062","date":"2021-09-30T23:53:38.000Z","from":"0x0000000000000000000000000000000000000000","to":"0x5338035c008EA8c4b850052bc8Dad6A33dc2206c","txHash":"0x35545e6840afd0fb06a1cb3013769aaee314d2f7ae22871754cafa8cd1c9d832"}],"currentOwner":"0x5338035c008EA8c4b850052bc8Dad6A33dc2206c"},{"name":"TransparentUpgradeableProxy #9601","collectionTokenId":"9601","collectionName":"TransparentUpgradeableProxy","imageUrl":"https://api.supducks.com/kingfrogs/image/9601","collectionAddress":"0xd668A2E001f3385B8BBC5a8682AC3C0D83C19122","traits":[{"value":"Melon","trait_type":"Background"},{"value":"GenZ","trait_type":"Eyes"},{"value":"Rappa","trait_type":"Hat"},{"value":"Basic","trait_type":"Mouth"},{"value":"Ringo Mango","trait_type":"Skin"}],"chain":"ETH","network":"mainnet","description":"TransparentUpgradeableProxy","provenance":[{"blockNumber":"13330062","date":"2021-09-30T23:53:38.000Z","from":"0x0000000000000000000000000000000000000000","to":"0x5338035c008EA8c4b850052bc8Dad6A33dc2206c","txHash":"0x35545e6840afd0fb06a1cb3013769aaee314d2f7ae22871754cafa8cd1c9d832"}],"currentOwner":"0x5338035c008EA8c4b850052bc8Dad6A33dc2206c"},{"name":"TransparentUpgradeableProxy #9602","collectionTokenId":"9602","collectionName":"TransparentUpgradeableProxy","imageUrl":null,"collectionAddress":"0xd668A2E001f3385B8BBC5a8682AC3C0D83C19122","traits":[],"chain":"ETH","network":"mainnet","description":"TransparentUpgradeableProxy","provenance":[{"blockNumber":"13330062","date":"2021-09-30T23:53:38.000Z","from":"0x0000000000000000000000000000000000000000","to":"0x5338035c008EA8c4b850052bc8Dad6A33dc2206c","txHash":"0x35545e6840afd0fb06a1cb3013769aaee314d2f7ae22871754cafa8cd1c9d832"}],"currentOwner":"0x5338035c008EA8c4b850052bc8Dad6A33dc2206c"},{"name":"TransparentUpgradeableProxy #9603","collectionTokenId":"9603","collectionName":"TransparentUpgradeableProxy","imageUrl":"https://api.supducks.com/kingfrogs/image/9603","collectionAddress":"0xd668A2E001f3385B8BBC5a8682AC3C0D83C19122","traits":[{"value":"Geeky Green","trait_type":"Background"},{"value":"Old","trait_type":"Eyes"},{"value":"Lint","trait_type":"Hat"},{"value":"Basic","trait_type":"Mouth"},{"value":"Lime Slushie","trait_type":"Skin"}],"chain":"ETH","network":"mainnet","description":"TransparentUpgradeableProxy","provenance":[{"blockNumber":"13330062","date":"2021-09-30T23:53:38.000Z","from":"0x0000000000000000000000000000000000000000","to":"0x5338035c008EA8c4b850052bc8Dad6A33dc2206c","txHash":"0x35545e6840afd0fb06a1cb3013769aaee314d2f7ae22871754cafa8cd1c9d832"}],"currentOwner":"0x5338035c008EA8c4b850052bc8Dad6A33dc2206c"},{"name":"TransparentUpgradeableProxy #9604","collectionTokenId":"9604","collectionName":"TransparentUpgradeableProxy","imageUrl":"https://api.supducks.com/kingfrogs/image/9604","collectionAddress":"0xd668A2E001f3385B8BBC5a8682AC3C0D83C19122","traits":[{"value":"Cyan","trait_type":"Background"},{"value":"Cute","trait_type":"Eyes"},{"value":"Chef","trait_type":"Hat"},{"value":"Tongue Out","trait_type":"Mouth"},{"value":"Mango","trait_type":"Skin"}],"chain":"ETH","network":"mainnet","description":"TransparentUpgradeableProxy","provenance":[{"blockNumber":"13330062","date":"2021-09-30T23:53:38.000Z","from":"0x0000000000000000000000000000000000000000","to":"0x5338035c008EA8c4b850052bc8Dad6A33dc2206c","txHash":"0x35545e6840afd0fb06a1cb3013769aaee314d2f7ae22871754cafa8cd1c9d832"}],"currentOwner":"0x5338035c008EA8c4b850052bc8Dad6A33dc2206c"},{"name":"TransparentUpgradeableProxy #9605","collectionTokenId":"9605","collectionName":"TransparentUpgradeableProxy","imageUrl":"https://api.supducks.com/kingfrogs/image/9605","collectionAddress":"0xd668A2E001f3385B8BBC5a8682AC3C0D83C19122","traits":[{"value":"Hot Pink","trait_type":"Background"},{"value":"Froggy","trait_type":"Eyes"},{"value":"Fellow Kids","trait_type":"Hat"},{"value":"Basic","trait_type":"Mouth"},{"value":"Lime Slushie","trait_type":"Skin"}],"chain":"ETH","network":"mainnet","description":"TransparentUpgradeableProxy","provenance":[{"blockNumber":"13330062","date":"2021-09-30T23:53:38.000Z","from":"0x0000000000000000000000000000000000000000","to":"0x5338035c008EA8c4b850052bc8Dad6A33dc2206c","txHash":"0x35545e6840afd0fb06a1cb3013769aaee314d2f7ae22871754cafa8cd1c9d832"}],"currentOwner":"0x5338035c008EA8c4b850052bc8Dad6A33dc2206c"}],"totalItems":23852,"totalPages":2386,"pageNumber":1}